…
``` r
covid_survey_longer
```

    ## # A tibble: 43,110 × 5
    ##    response_id explanatory    explanatory_value response          response_value
    ##          <dbl> <chr>          <fct>             <chr>                      <dbl>
    ##  1           1 exp_profession Nursing           resp_safety                    5
    ##  2           1 exp_profession Nursing           resp_confidence_…              2
    ##  3           1 exp_profession Nursing           resp_concern_saf…              2
    ##  4           1 exp_profession Nursing           resp_feel_safe_a…              1
    ##  5           1 exp_profession Nursing           resp_will_recomm…              1
    ##  6           1 exp_profession Nursing           resp_trust_info                1
    ##  7           1 exp_flu_vax    Yes               resp_safety                    5
    ##  8           1 exp_flu_vax    Yes               resp_confidence_…              2
    ##  9           1 exp_flu_vax    Yes               resp_concern_saf…              2
    ## 10           1 exp_flu_vax    Yes               resp_feel_safe_a…              1
    ## # … with 43,100 more rows

-   Group the data (`covid_survey_longer`) by `explanatory`,
    `explanatory_value`, and `response`, and then calculate the
    following summary statistics:
    -   `mean`: mean of the `response_value`
    -   `low`: 10th percentile of the `response_value`
    -   `high`: 90th percentile of the `response_value` Name this new
        data frame `covid_survey_summary_stats_by_group`. It should look
        like the following:

``` r
covid_survey_summary_stats_by_group
```

    ## # A tibble: 126 × 6
    ##    explanatory explanatory_value response                 mean   low  high
    ##    <chr>       <fct>             <chr>                   <dbl> <dbl> <dbl>
    ##  1 exp_age_bin <20               resp_concern_safety      3.35     2   4.4
    ##  2 exp_age_bin <20               resp_confidence_science  1.65     1   2.4
    ##  3 exp_age_bin <20               resp_feel_safe_at_work   1.71     1   3.8
    ##  4 exp_age_bin <20               resp_safety              1.41     1   2  
    ##  5 exp_age_bin <20               resp_trust_info          1.41     1   2  
    ##  6 exp_age_bin <20               resp_will_recommend      1.35     1   1.8
    ##  7 exp_age_bin 21-25             resp_concern_safety      3.31     2   5  
    ##  8 exp_age_bin 21-25             resp_confidence_science  1.31     1   2  
    ##  9 exp_age_bin 21-25             resp_feel_safe_at_work   1.20     1   2  
    ## 10 exp_age_bin 21-25             resp_safety              1.96     1   5  
    ## # … with 116 more rows
…
-   Bind the two data frames of summary statistics you created
    `covid_survey_summary_stats_all` and
    `covid_survey_summary_stats_by_group` together by row. Name the
    resulting data frame `covid_survey_summary_stats`. It should look
    like the following:

``` r
covid_survey_summary_stats
```

    ## # A tibble: 132 × 6
    ##    response                 mean   low  high explanatory explanatory_value
    ##    <chr>                   <dbl> <dbl> <dbl> <chr>       <fct>            
    ##  1 resp_concern_safety      3.28     1   5   All         ""               
    ##  2 resp_confidence_science  1.43     1   2   All         ""               
    ##  3 resp_feel_safe_at_work   1.35     1   2   All         ""               
    ##  4 resp_safety              2.04     1   5   All         ""               
    ##  5 resp_trust_info          1.40     1   2   All         ""               
    ##  6 resp_will_recommend      1.21     1   2   All         ""               
    ##  7 resp_concern_safety      3.35     2   4.4 exp_age_bin "<20"            
    ##  8 resp_confidence_science  1.65     1   2.4 exp_age_bin "<20"            
    ##  9 resp_feel_safe_at_work   1.71     1   3.8 exp_age_bin "<20"            
    ## 10 resp_safety              1.41     1   2   exp_age_bin "<20"            
    ## # … with 122 more rows
…
